<?xml version="1.0" encoding="UTF-8" standalone="no"?>
<svg
   style="enable-background:new"
   height="512"
   viewBox="0 0 512 512"
   width="512"
   version="1.1"
   id="svg48"
   sodipodi:docname="lenses.svg"
   inkscape:version="1.1.1 (50ffc5b540, 2022-01-11)"
   xmlns:inkscape="http://www.inkscape.org/namespaces/inkscape"
   xmlns:sodipodi="http://sodipodi.sourceforge.net/DTD/sodipodi-0.dtd"
   xmlns="http://www.w3.org/2000/svg"
   xmlns:svg="http://www.w3.org/2000/svg">
  <sodipodi:namedview
     id="namedview50"
     pagecolor="#ffffff"
     bordercolor="#666666"
     borderopacity="1.0"
     inkscape:pageshadow="2"
     inkscape:pageopacity="0.0"
     inkscape:pagecheckerboard="0"
     showgrid="false"
     inkscape:zoom="0.96393998"
     inkscape:cx="197.10771"
     inkscape:cy="216.29978"
     inkscape:window-width="1852"
     inkscape:window-height="1016"
     inkscape:window-x="68"
     inkscape:window-y="27"
     inkscape:window-maximized="1"
     inkscape:current-layer="g26" />
  <defs
     id="defs18">
    <radialGradient
       id="b"
       gradientUnits="userSpaceOnUse"
       cy="-256.2"
       cx="-256"
       gradientTransform="matrix(0 -1.498 -1.498 0 -127.6 -127.5)"
       r="96">
      <stop
         stop-opacity="0"
         offset="0"
         id="stop2" />
      <stop
         stop-opacity="0"
         offset=".8987"
         id="stop4" />
      <stop
         stop-opacity=".2617"
         offset=".9493"
         id="stop6" />
      <stop
         offset="1"
         id="stop8" />
    </radialGradient>
    <radialGradient
       id="a"
       gradientUnits="userSpaceOnUse"
       cy="-256"
       cx="-258"
       gradientTransform="matrix(1.084 0 0 1.084 21.64 21.47)"
       r="176">
      <stop
         stop-opacity="0"
         offset="0"
         id="stop11" />
      <stop
         offset=".5048"
         id="stop13" />
      <stop
         stop-opacity="0"
         offset="1"
         id="stop15" />
    </radialGradient>
  </defs>
  <g
     id="g26">
    <path
       style="color:#000000;enable-background:accumulate;fill:#333333"
       d="m0 0v512h512v-512z"
       fill="#eeecea"
       id="path20" />
    <path
       opacity=".4"
       style="color:#000000;enable-background:accumulate;fill:#ffcc00;opacity:1"
       d="m0 256v256h512v-256h-483.6z"
       fill="#fff"
       id="path22" />
    <circle
       style="color:#000000;enable-background:accumulate"
       cx="428"
       cy="84"
       r="12"
       fill="#df382c"
       id="circle24" />
  </g>
  <g
     id="g46">
    <circle
       opacity=".1"
       style="color:#000000;enable-background:accumulate"
       fill-opacity=".9961"
       transform="matrix(0,-1,-1,0,0,0)"
       cy="-256"
       cx="-258"
       r="176"
       id="circle28" />
    <circle
       opacity=".2"
       style="color:#000000;enable-background:accumulate"
       transform="matrix(0,-1,-1,0,0,0)"
       cy="-256"
       cx="-258"
       r="190.8"
       fill="url(#a)"
       id="circle30" />
    <circle
       style="color:#000000;enable-background:accumulate"
       cx="-256"
       transform="matrix(0,-1,-1,0,0,0)"
       cy="-256"
       r="176"
       fill="#fcfcfc"
       id="circle32" />
    <circle
       style="color:#000000;enable-background:accumulate;fill:#ffaaaa"
       transform="matrix(0,-1,-1,0,0,0)"
       cy="-256.2"
       cx="-256"
       r="143.8"
       fill="#b6e2f3"
       id="circle34" />
    <circle
       style="color:#000000;enable-background:accumulate;fill:#aa0000"
       transform="matrix(0,-1,-1,0,0,0)"
       cy="-256.2"
       cx="-256"
       r="110.8"
       fill="#369ad4"
       id="circle38" />
    <circle
       style="color:#000000;enable-background:accumulate;fill:#800000"
       transform="matrix(0,-1,-1,0,0,0)"
       cy="-256.2"
       cx="-256"
       r="71.8"
       fill="#1c629d"
       id="circle40" />
    <circle
       style="color:#000000;enable-background:accumulate;fill:#550000"
       cx="-256"
       transform="matrix(0,-1,-1,0,0,0)"
       cy="-256.2"
       r="40"
       fill="#10395c"
       id="circle42" />
    <circle
       opacity=".2330"
       style="color:#000000;enable-background:accumulate"
       cy="213.6"
       cx="299.4"
       r="51.45"
       fill="#fff"
       id="circle44" />
  </g>
</svg>
